<?xml version="1.0" encoding="UTF-8" standalone="no"?>
<!-- Created with Inkscape (http://www.inkscape.org/) -->

<svg
   xmlns:dc="http://purl.org/dc/elements/1.1/"
   xmlns:cc="http://creativecommons.org/ns#"
   xmlns:rdf="http://www.w3.org/1999/02/22-rdf-syntax-ns#"
   xmlns:svg="http://www.w3.org/2000/svg"
   xmlns="http://www.w3.org/2000/svg"
   xmlns:sodipodi="http://sodipodi.sourceforge.net/DTD/sodipodi-0.dtd"
   xmlns:inkscape="http://www.inkscape.org/namespaces/inkscape"
   id="svg4124"
   height="45.999989"
   width="124.92733"
   version="1.1"
   inkscape:version="0.48.3.1 r9886">
  <defs
     id="defs15" />
  <sodipodi:namedview
     pagecolor="#ffffff"
     bordercolor="#666666"
     borderopacity="1"
     objecttolerance="10"
     gridtolerance="10"
     guidetolerance="10"
     inkscape:pageopacity="0"
     inkscape:pageshadow="2"
     inkscape:window-width="1366"
     inkscape:window-height="719"
     id="namedview13"
     showgrid="false"
     inkscape:zoom="1.2586854"
     inkscape:cx="5.9460547"
     inkscape:cy="66.905421"
     inkscape:window-x="0"
     inkscape:window-y="0"
     inkscape:window-maximized="1"
     inkscape:current-layer="layer1"
     fit-margin-top="0"
     fit-margin-left="0"
     fit-margin-right="0"
     fit-margin-bottom="0" />
  <metadata
     id="metadata4129">
    <rdf:RDF>
      <cc:Work
         rdf:about="">
        <dc:format>image/svg+xml</dc:format>
        <dc:type
           rdf:resource="http://purl.org/dc/dcmitype/StillImage" />
        <dc:title />
      </cc:Work>
    </rdf:RDF>
  </metadata>
  <g
     id="layer1"
     transform="translate(-38.639111,-159.28003)">
    <path
       id="path3177-1-2"
       d="m 118.35309,204.13471 c 0,-2.25274 -2.04613,-6.3397 -1.64747,-8.99731 l 0.3577,-2.38509 -1.87738,0 c -1.03264,0 -2.3517,-0.34656 -2.93119,-0.77021 -0.91735,-0.67081 -1.2323,-0.64711 -2.43617,0.18317 -2.9992,2.07295 -5.06454,1.79357 -6.05767,-0.81893 -0.64296,-1.69133 -2.70598,-1.7831 -4.152253,-0.18457 -2.81539,3.11087 -7.151637,3.6073 -9.504879,1.08796 l -1.493449,-1.59882 -1.803101,1.14176 c -2.192125,1.38793 -5.978801,1.5061 -7.90086,0.24768 -2.145641,-1.40591 -2.872807,-4.34706 -1.78143,-7.20432 2.698627,-7.06648 10.433597,-6.77208 8.522315,0.32446 -0.429513,1.59532 -0.833344,2.12424 -1.515245,1.98424 -0.731422,-0.14838 -0.91067,-0.74189 -0.840706,-2.77706 0.07307,-2.12441 -0.08149,-2.58639 -0.864398,-2.58639 -1.437655,0 -3.342084,2.33886 -3.699838,4.54373 -0.262305,1.61626 -0.07117,2.20497 1.09381,3.37009 0.866938,0.86684 2.025069,1.41178 3.001232,1.41178 2.009976,0 4.91748,-1.94037 6.559598,-4.3771 1.781915,-2.64432 3.838803,-3.84357 6.599075,-3.84777 2.802506,-0.0225 5.049379,1.84003 5.049379,4.14427 0,1.10143 0.21085,1.37414 0.86766,1.1221 0.47725,-0.18235 0.9797,-0.33299 1.11659,-0.33299 0.13715,0 0.7251,-1.11082 1.30704,-2.46844 0.58191,-1.35781 1.32148,-2.46856 1.64344,-2.46856 1.11179,0 1.23597,1.712 0.27854,3.8354 -1.0517,2.33219 -0.77379,4.9416 0.52627,4.9416 1.47546,0 3.70122,-2.51289 4.60336,-5.19621 0.49628,-1.47716 1.21102,-2.78423 1.58794,-2.90456 1.08875,-0.3478 1.46594,1.48749 0.72597,3.53372 -0.53013,1.4656 -0.53386,2.05183 -0.0172,2.67355 1.08491,1.30729 2.50221,0.91575 4.36468,-1.20558 1.70567,-1.94264 1.74639,-2.10632 1.37927,-5.53553 -0.34705,-3.24146 -0.29513,-3.5175 0.63057,-3.34196 0.69011,0.12736 1.06413,0.76366 1.18333,2.00277 0.10931,1.13491 0.41673,1.71005 0.82292,1.53953 2.51835,-1.05592 4.86998,-1.53214 6.07413,-1.22971 1.60449,0.40256 3.07669,2.8383 3.07669,5.08981 0,1.49509 0.0375,1.47905 2.7638,-1.20655 2.69914,-2.6587 2.84119,-2.72231 6.07858,-2.72231 3.70906,0 4.87177,0.87609 4.87177,3.67046 0,3.00434 2.61305,1.14916 2.85202,-2.0246 0.22269,-2.95835 1.73879,-3.06339 1.98114,-0.13717 0.0937,1.1315 0.2729,2.05721 0.39795,2.05721 0.1257,0 1.03622,-0.49272 2.02432,-1.09514 0.98765,-0.60218 1.96314,-1.09599 2.16792,-1.09696 0.98652,-0.0225 2.09623,1.92098 2.09623,3.63873 0,4.66168 2.05297,4.87744 4.62655,0.48584 1.59246,-2.71654 2.5048,-3.16718 2.5048,-1.23693 0,2.9938 -4.53076,7.2749 -7.0127,6.62538 -1.2431,-0.32503 -2.31288,-2.71953 -2.31288,-5.17654 0,-2.52611 -0.86912,-2.31218 -3.6019,0.88657 -2.62738,3.07525 -3.9114,3.57669 -3.67284,1.43405 0.20398,-1.83253 -1.85725,-1.47629 -4.31712,0.74596 -1.66644,1.5055 -2.58886,1.9201 -4.273,1.9201 -2.92264,0 -3.78408,-0.41167 -4.74311,-2.26608 l -0.81946,-1.58463 -1.76601,0.94944 c -1.17699,0.63286 -2.97731,0.94484 -5.39935,0.93522 l -3.63342,-0.0225 -0.33971,3.5954 c -0.1871,1.9775 -0.34144,4.71856 -0.3436,6.09156 -0.0112,3.60109 -1.47878,4.87665 -2.9779,2.5783 z m 1.27369,-7.95393 c -0.0358,-3.52372 -0.20458,-4.88069 -0.49387,-3.97722 -0.81966,2.55938 -0.57807,9.32544 0.33304,9.32544 0.11806,0 0.19094,-2.40669 0.16108,-5.34822 z m -22.774897,-5.12128 1.454489,-1.14428 -1.380557,-1.64067 c -0.759426,-0.9024 -1.380597,-2.11544 -1.380597,-2.69566 0,-1.23183 -0.07071,-1.24912 -1.833718,-0.44614 -1.286254,0.58589 -2.554775,2.55107 -2.554775,3.95749 0,1.30944 1.723266,3.11325 2.974172,3.11325 0.696529,0 1.920884,-0.51481 2.720986,-1.14404 z m 43.908577,-0.0225 1.47884,-1.16307 -1.18585,-1.2627 c -0.6524,-0.69415 -1.22279,-1.8985 -1.26778,-2.67623 -0.10182,-1.75458 -0.95199,-1.79293 -2.88541,-0.12735 -1.02891,0.88519 -1.49354,1.81417 -1.49354,2.98792 0,3.35499 2.57147,4.43274 5.35374,2.24415 z m -12.81424,-1.59896 c 1.29485,-0.69311 1.36926,-2.58787 0.16865,-4.30172 -0.71988,-1.02788 -1.21649,-1.20898 -2.56963,-0.93848 -0.92256,0.18429 -2.12564,0.74127 -2.67344,1.2369 -1.13537,1.02741 -1.33917,3.79264 -0.31035,4.20762 1.22499,0.49454 4.29693,0.37771 5.3845,-0.20449 z m -29.587613,-3.97092 c -0.91326,-0.91314 -1.430409,-0.0225 -0.580395,1.01836 0.514059,0.61954 0.811486,0.69357 0.962799,0.24209 0.120343,-0.36112 -0.05156,-0.92744 -0.382404,-1.25807 z m 44.521483,0.6967 c -0.15764,-0.60332 -0.50489,-1.09681 -0.77154,-1.09681 -0.56661,0 -0.65094,1.29609 -0.11705,1.82823 0.71899,0.71919 1.17223,0.34708 0.89017,-0.73142 z"
       inkscape:connector-curvature="0"
       style="fill:#000000"
       sodipodi:nodetypes="cccssscscccscccsscssccscsssssccssssccccsssssssscssscssccsccsscssccsssscccscssccccsssscccscsccccsccccssc" />
    <g
       id="text3179-3-7"
       style="font-size:36px;font-style:normal;font-variant:normal;font-weight:bold;font-stretch:normal;line-height:125%;letter-spacing:0px;word-spacing:0px;fill:#000000;font-family:Purisa"
       font-weight="bold"
       transform="matrix(0.54855745,0,0,0.54855745,64.225592,-17.431171)"
       font-stretch="normal"
       line-height="125%"
       font-size="36px"
       font-variant="normal"
       font-style="normal">
      <path
         id="path4034-2"
         d="m 40.571,351.01 c 0.55198,-0.55199 0.94798,-0.99599 1.188,-1.332 0.26398,-0.33599 0.49198,-0.82799 0.684,-1.476 0.19198,-0.64799 0.28798,-1.44 0.288,-2.376 -1.9e-5,-2.712 -1.044,-4.068 -3.132,-4.068 -0.62402,2e-5 -1.26,0.084 -1.908,0.252 -0.64801,0.16802 -1.428,0.43202 -2.34,0.792 -0.88801,0.33601 -1.416,0.52801 -1.584,0.576 -0.21601,0.072 -0.32401,0.45601 -0.324,1.152 -10e-6,0.50401 0.03599,1.512 0.108,3.024 0.04799,0.96001 0.08399,1.68 0.108,2.16 0.04799,0.48001 0.13199,0.94801 0.252,1.404 0.11999,0.45601 0.21599,0.76801 0.288,0.936 0.09599,0.14401 0.28799,0.28801 0.576,0.432 0.28799,0.12001 0.55199,0.19201 0.792,0.216 0.26399,10e-6 0.67199,0.012 1.224,0.036 0.11999,10e-6 0.27599,0.012 0.468,0.036 0.21599,10e-6 0.37199,10e-6 0.468,0 0.55198,10e-6 0.95998,-0.084 1.224,-0.252 0.28798,-0.16799 0.82798,-0.67199 1.62,-1.512 m 0.36,-19.8 c -1.8e-5,-0.11997 -0.06002,-0.23997 -0.18,-0.36 -0.09602,-0.11997 -0.37202,-0.23997 -0.828,-0.36 -0.43202,-0.14397 -0.99602,-0.21597 -1.692,-0.216 -1.008,3e-5 -2.124,0.084 -3.348,0.252 -1.224,0.16803 -1.992,0.32403 -2.304,0.468 -0.19201,0.072 -0.28801,0.38403 -0.288,0.936 v 0.72 c -9e-6,1.2 0.11999,2.652 0.36,4.356 0.23999,1.68 0.43199,2.712 0.576,3.096 0.07199,0.19202 0.16799,0.28802 0.288,0.288 0.45599,-0.072 1.476,-0.93598 3.06,-2.592 1.608,-1.656 2.748,-3.144 3.42,-4.464 0.62398,-1.272 0.93598,-1.98 0.936,-2.124 m -13.068,1.332 c -1.512,3e-5 -2.268,-0.40797 -2.268,-1.224 -2e-6,-1.008 2.016,-1.992 6.048,-2.952 1.656,-0.38397 4.08,-0.57597 7.272,-0.576 0.59998,3e-5 1.056,0.012 1.368,0.036 0.33598,3e-5 0.65998,0.072 0.972,0.216 0.33598,0.12003 0.55198,0.21603 0.648,0.288 0.11998,0.048 0.41998,0.21603 0.9,0.504 0.31198,0.19203 0.55198,0.50403 0.72,0.936 0.19198,0.40803 0.28798,0.74403 0.288,1.008 -0.02402,0.81603 -0.20402,1.668 -0.54,2.556 -0.33602,0.88802 -0.68402,1.62 -1.044,2.196 -0.33602,0.55202 -0.74402,1.164 -1.224,1.836 -0.48002,0.67202 -0.75602,1.056 -0.828,1.152 0.62398,0.024 1.44,0.34802 2.448,0.972 1.032,0.60002 1.704,1.152 2.016,1.656 0.62398,0.98402 0.93598,2.4 0.936,4.248 -2.2e-5,2.88 -0.87602,5.316 -2.628,7.308 -1.728,1.992 -3.432,2.988 -5.112,2.988 -0.31201,0 -0.68401,-0.072 -1.116,-0.216 -0.43201,-0.144 -0.75601,-0.216 -0.972,-0.216 -0.26401,0 -0.72001,0.108 -1.368,0.324 -0.62401,0.192 -1.104,0.288 -1.44,0.288 -0.40801,0 -0.75601,-0.108 -1.044,-0.324 -0.28801,-0.216 -0.52801,-0.564 -0.72,-1.044 -0.16801,-0.48 -0.30001,-1.008 -0.396,-1.584 -0.09601,-0.57599 -0.18001,-1.308 -0.252,-2.196 -0.07201,-0.88799 -0.14401,-1.764 -0.216,-2.628 -0.04801,-0.88799 -0.13201,-1.956 -0.252,-3.204 -0.09601,-1.248 -0.22801,-2.436 -0.396,-3.564 -0.19201,-1.44 -0.39601,-3.456 -0.612,-6.048 l -0.216,-2.736 h -0.972"
         inkscape:connector-curvature="0" />
      <path
         id="path4036-7"
         d="m 70.345,347.45 c 0.43198,1e-5 0.64798,0.25201 0.648,0.756 -2.2e-5,0.55201 -0.34802,1.344 -1.044,2.376 -0.69602,1.008 -1.392,1.824 -2.088,2.448 -2.688,2.304 -5.46,3.456 -8.316,3.456 -2.352,0 -4.476,-0.924 -6.372,-2.772 -1.896,-1.848 -2.844,-4.392 -2.844,-7.632 -10e-7,-0.91199 0.132,-1.788 0.396,-2.628 0.504,-1.488 1.632,-3.036 3.384,-4.644 1.752,-1.632 3.432,-2.448 5.04,-2.448 0.43199,2e-5 1.068,0.036 1.908,0.108 1.296,0.096 2.208,0.22802 2.736,0.396 0.55198,0.14402 1.176,0.44402 1.872,0.9 0.76798,0.50402 1.464,1.224 2.088,2.16 0.62398,0.91202 0.93598,1.716 0.936,2.412 -2e-5,0.91201 -0.37202,1.584 -1.116,2.016 -0.74402,0.43201 -2.004,0.82801 -3.78,1.188 -2.328,0.45601 -4.728,0.75601 -7.2,0.9 l -3.132,0.144 v 0.936 c -5e-6,0.88801 0.192,1.668 0.576,2.34 0.40799,0.67201 1.056,1.38 1.944,2.124 1.272,1.056 2.568,1.584 3.888,1.584 1.056,0 2.172,-0.312 3.348,-0.936 1.176,-0.64799 2.172,-1.356 2.988,-2.124 0.83998,-0.76799 1.644,-1.464 2.412,-2.088 0.79198,-0.64799 1.368,-0.97199 1.728,-0.972 m -4.644,-5.688 c -1.7e-5,-0.19198 -0.52802,-0.68398 -1.584,-1.476 -0.76801,-0.57598 -1.32,-0.93598 -1.656,-1.08 -0.31201,-0.14398 -0.76801,-0.21598 -1.368,-0.216 -1.2,2e-5 -2.088,0.096 -2.664,0.288 -0.55201,0.16802 -1.14,0.55202 -1.764,1.152 -1.872,1.824 -2.808,3 -2.808,3.528 l -0.036,-0.036 c 0.096,0.024 0.312,0.036 0.648,0.036 2.328,10e-6 5.556,-0.40799 9.684,-1.224 1.032,-0.19198 1.548,-0.51598 1.548,-0.972"
         inkscape:connector-curvature="0" />
      <path
         id="path4038-9"
         d="m 75.634,353.71 c -3e-6,-0.408 0.108,-0.75599 0.324,-1.044 0.216,-0.31199 0.48,-0.46799 0.792,-0.468 0.6,1e-5 1.128,0.42001 1.584,1.26 0.26399,0.504 0.83999,0.984 1.728,1.44 0.88799,0.432 1.716,0.648 2.484,0.648 0.95999,0 1.836,-0.528 2.628,-1.584 0.81599,-1.08 1.224,-1.908 1.224,-2.484 -1.4e-5,-0.096 -0.03601,-0.22799 -0.108,-0.396 -0.07201,-0.19199 -0.27601,-0.44399 -0.612,-0.756 -0.31201,-0.31199 -0.72001,-0.53999 -1.224,-0.684 -0.81601,-0.23999 -1.704,-0.53999 -2.664,-0.9 -0.96001,-0.38399 -1.668,-0.62399 -2.124,-0.72 -0.72001,-0.14399 -1.668,-0.64799 -2.844,-1.512 -1.176,-0.86399 -1.764,-1.776 -1.764,-2.736 -3e-6,-0.95998 0.684,-2.196 2.052,-3.708 1.368,-1.512 3.06,-2.484 5.076,-2.916 l 3.6,-0.324 c 0.64799,2e-5 1.14,0.084 1.476,0.252 0.33598,0.14402 0.75598,0.50402 1.26,1.08 0.81598,0.93602 1.224,1.62 1.224,2.052 -1.7e-5,0.60002 -0.31202,0.90002 -0.936,0.9 -0.52802,2e-5 -1.068,-0.27598 -1.62,-0.828 -0.52801,-0.57598 -1.188,-0.86398 -1.98,-0.864 -1.08,2e-5 -2.208,0.31202 -3.384,0.936 -1.152,0.60002 -2.064,1.236 -2.736,1.908 -0.67201,0.64802 -1.008,1.116 -1.008,1.404 -6e-6,0.19201 0.13199,0.42001 0.396,0.684 0.28799,0.24001 0.75599,0.52801 1.404,0.864 0.67199,0.33601 1.464,0.63601 2.376,0.9 2.52,0.74401 4.26,1.476 5.22,2.196 0.95998,0.72001 1.44,1.728 1.44,3.024 -1.6e-5,1.128 -0.20402,2.148 -0.612,3.06 -0.33602,0.792 -0.99602,1.608 -1.98,2.448 -0.98401,0.864 -1.992,1.296 -3.024,1.296 -0.74401,0 -1.716,-0.108 -2.916,-0.324 -1.176,-0.192 -2.088,-0.432 -2.736,-0.72 -0.528,-0.264 -0.996,-0.732 -1.404,-1.404 -0.408,-0.696 -0.612,-1.356 -0.612,-1.98"
         inkscape:connector-curvature="0" />
      <path
         id="path4040-5"
         d="m 101.3,336.43 c -0.768,0.048 -1.824,0.19202 -3.168,0.432 -1.32,0.21602 -2.208,0.32402 -2.664,0.324 -1.032,2e-5 -1.548,-0.40798 -1.548,-1.224 -10e-7,-0.64798 0.456,-1.14 1.368,-1.476 0.912,-0.33598 1.992,-0.59998 3.24,-0.792 1.272,-0.19198 2.088,-0.38398 2.448,-0.576 0.192,-0.19197 0.288,-0.70797 0.288,-1.548 0,-0.86397 -0.108,-1.992 -0.324,-3.384 -0.216,-1.392 -0.324,-2.652 -0.324,-3.78 0,-0.76797 0.204,-1.332 0.612,-1.692 0.40799,-0.38396 0.85199,-0.57596 1.332,-0.576 0.52799,4e-5 0.89999,0.21604 1.116,0.648 0.11999,0.36003 0.32399,1.932 0.612,4.716 0.28799,2.76 0.46799,4.356 0.54,4.788 0.19199,-0.024 0.82799,-0.11997 1.908,-0.288 1.104,-0.19197 1.944,-0.28797 2.52,-0.288 0.81599,3e-5 1.392,0.13203 1.728,0.396 0.33599,0.26403 0.50399,0.55203 0.504,0.864 -1e-5,0.45602 -0.31201,0.84002 -0.936,1.152 -0.62401,0.31202 -1.752,0.67202 -3.384,1.08 l -2.052,0.324 0.288,5.472 c 0.19199,3.384 0.52799,6.552 1.008,9.504 0.47999,2.952 5.9366,1.3984 5.9366,1.8544 2.3214,0.87743 1.5528,5.0202 -6.8726,4.8416 -0.64786,-0.0137 -1.128,-0.12 -1.44,-0.36 -0.72001,-0.648 -1.08,-2.004 -1.08,-4.068 -1e-5,-0.83999 -0.048,-1.692 -0.144,-2.556 -0.096,-0.88799 -0.26401,-2.256 -0.504,-4.104 -0.21601,-1.872 -0.42001,-3.804 -0.612,-5.796 -0.24,-2.496 -0.372,-3.792 -0.396,-3.888"
         inkscape:connector-curvature="0" />
    </g>
    <path
       id="path3177-1-2-6"
       d="m 49.833648,192.70247 c -5.205826,-1.85403 -8.92887,-5.97914 -10.614043,-11.76088 -2.177342,-7.46815 1.947497,-15.9581 9.408327,-19.36397 3.919105,-1.78971 10.511459,-1.77392 13.988201,0.0311 3.362284,1.74743 6.389054,4.7351 8.127991,8.0239 1.217937,2.30282 1.450957,3.44631 1.452906,7.13091 5.47e-4,7.13482 -2.919602,11.94454 -9.154333,15.05979 -2.808898,1.40342 -3.967714,1.66758 -7.234367,1.6472 -2.139161,-0.0225 -4.82797,-0.35874 -5.974893,-0.76794 z m 6.065954,-2.08771 c -0.349551,-1.0646 -3.157606,-1.21896 -3.157606,-0.1742 0,0.59436 0.521744,0.85951 1.69137,0.85951 1.107464,0 1.61364,-0.23929 1.466236,-0.68579 z m 3.105933,0.35262 c 0.477233,-0.18261 0.867702,-0.7031 0.867702,-1.1557 0,-0.52508 -0.314137,-0.70227 -0.867702,-0.48985 -0.47723,0.18233 -1.217786,0.33285 -1.645677,0.33285 -0.427874,0 -0.777963,0.37024 -0.777963,0.8229 0,0.86128 0.953546,1.05402 2.42364,0.4898 z m -8.457656,-1.49214 c 0,-0.98049 -2.580308,-2.16598 -3.0524,-1.40195 -0.391737,0.63384 -0.384174,0.64357 1.132453,1.49068 1.460033,0.8156 1.919947,0.79433 1.919947,-0.0876 z m 14.012338,-1.49894 c 0.615385,-0.99579 -0.238656,-1.27483 -1.627056,-0.53191 -0.750909,0.40186 -1.202941,1.03282 -1.041432,1.45361 0.304719,0.79415 1.961837,0.22245 2.668488,-0.92157 z m -18.4008,-1.79915 c 0,-0.40574 -0.469213,-1.1622 -1.042652,-1.6814 -1.407041,-1.27329 -2.149202,-0.0836 -0.845989,1.35669 1.121212,1.23893 1.888714,1.37085 1.888714,0.32471 z m 21.631829,-1.57116 c 1.120807,-1.6001 0.126537,-2.77154 -1.041451,-1.22717 -0.923888,1.22172 -1.086016,2.43906 -0.324889,2.43906 0.284637,0 0.899437,-0.54541 1.366308,-1.21189 z m -14.285567,-0.57062 c 0.439124,-0.70122 0.426519,-1.23563 -0.04712,-1.99382 -0.539007,-0.86312 -0.436971,-1.23338 0.611037,-2.21791 l 1.258064,-1.18186 3.089414,1.15575 c 3.143348,1.17609 5.881113,1.27591 6.224488,0.22722 0.104577,-0.31912 -1.422021,-1.14976 -3.392384,-1.84518 -1.970371,-0.69566 -3.688682,-1.4366 -3.818459,-1.64648 -0.12982,-0.21094 0.850974,-1.72478 2.179479,-3.36627 1.328553,-1.64132 2.424949,-3.16908 2.4364,-3.39556 0.0081,-0.22666 -0.566422,-0.41129 -1.284377,-0.41129 -1.125311,0 -3.902493,2.6562 -5.894815,5.63779 -0.188362,0.28317 -1.099462,0.34735 -2.024172,0.14249 -1.300479,-0.28575 -1.71977,-0.70278 -1.851329,-1.84159 -0.147269,-1.27436 -0.420046,-1.47206 -2.030217,-1.47206 -1.175225,0 -2.083126,0.35327 -2.465696,0.95988 -0.93098,1.47589 0.17257,2.67897 3.150584,3.4351 3.980715,1.01077 4.18758,1.54298 1.539961,3.96328 -1.256577,1.14865 -2.284614,2.46551 -2.284614,2.92667 0,2.16414 3.399334,2.8455 4.603366,0.92249 z m -2.677938,-0.40432 c -0.40458,-0.65454 0.108974,-1.65446 0.849666,-1.65446 0.667483,0 0.671837,1.48466 0.0025,1.89635 -0.280827,0.17447 -0.665733,0.0656 -0.855193,-0.24349 z m -2.742771,-9.32548 c -0.404598,-0.65448 0.108975,-1.65477 0.849649,-1.65477 0.66748,0 0.671822,1.48487 5.38e-4,1.89666 -0.280815,0.17447 -0.66573,0.0653 -0.855207,-0.24376 z m -5.093959,5.89438 c -0.297923,-1.10704 -0.595159,-1.35382 -1.188789,-0.98626 -0.655511,0.40599 -0.674611,0.7471 -0.111172,1.98428 0.847311,1.85954 1.859401,1.08239 1.299652,-0.99802 z m 26.756429,-0.96614 c 0,-1.75832 -0.762932,-2.21069 -1.312705,-0.77782 -0.564128,1.47019 -0.371371,2.42364 0.489882,2.42364 0.548561,0 0.822838,-0.54866 0.822838,-1.64582 z m -27.21229,-3.06178 c 0.564136,-1.47015 0.371373,-2.42375 -0.489875,-2.42375 -0.548561,0 -0.822832,0.54871 -0.822832,1.64586 0,1.75832 0.762925,2.21066 1.312707,0.77789 z m 27.111355,-2.24428 c -0.223819,-1.88928 -1.544941,-2.39448 -1.544941,-0.59105 0,1.39045 0.39708,2.05744 1.224983,2.05744 0.271477,0 0.41546,-0.65989 0.319994,-1.46639 z m -25.24627,-3.49295 c 0.679041,-1.08742 0.489513,-2.17195 -0.379516,-2.17195 -0.374826,0 -1.701342,2.37248 -1.701342,3.04273 0,0.7155 1.475892,0.0993 2.080847,-0.87078 z m 23.371863,-0.43697 c 0.155907,-0.25218 -0.104802,-1.01388 -0.579648,-1.69207 -1.12664,-1.60833 -2.244218,-0.6857 -1.19812,0.98944 0.771268,1.23485 1.315762,1.45015 1.777768,0.70263 z m -19.722853,-3.67011 c 1.544525,-1.16801 0.373082,-2.16199 -1.227117,-1.04113 -0.666555,0.46673 -1.211918,1.08147 -1.211918,1.36597 0,0.76138 1.217395,0.59908 2.438976,-0.32489 z m 15.359634,-1.60538 c -1.145207,-0.86476 -1.982106,-0.84268 -2.283106,0.0597 -0.102753,0.30869 0.375459,0.82085 1.062824,1.13861 1.685944,0.77999 2.622102,-0.13773 1.220217,-1.19865 z m -9.683147,-1.3219 c 0.160339,-0.48095 -0.253723,-0.64221 -1.330976,-0.51873 -0.932928,0.10744 -1.634036,0.55091 -1.738213,1.10059 -0.143087,0.75541 0.09708,0.84882 1.330948,0.51866 0.82806,-0.22272 1.610235,-0.71645 1.738241,-1.10052 z m 5.598584,0.20954 c 0,-0.4528 -0.350087,-0.82299 -0.77798,-0.82299 -0.427889,0 -1.168419,-0.14839 -1.645669,-0.33318 -0.558756,-0.21405 -0.8677,-0.0328 -0.8677,0.50856 0,0.77412 0.874062,1.24588 2.605643,1.4065 0.377155,0.0347 0.685706,-0.30578 0.685706,-0.75901 z"
       inkscape:connector-curvature="0"
       style="fill:#000000"
       sodipodi:nodetypes="cccscscccccsscccscssccssssscssccccccccssccccccscscscscsssscsscccsccccscccccsccccscccssccsscccssccscsscssccccscccsssccscsccc" />
  </g>
</svg>
