<?xml version="1.0" encoding="UTF-8" standalone="no"?>
<!-- Created with Inkscape (http://www.inkscape.org/) -->

<svg
   xmlns:dc="http://purl.org/dc/elements/1.1/"
   xmlns:cc="http://creativecommons.org/ns#"
   xmlns:rdf="http://www.w3.org/1999/02/22-rdf-syntax-ns#"
   xmlns:svg="http://www.w3.org/2000/svg"
   xmlns="http://www.w3.org/2000/svg"
   xmlns:sodipodi="http://sodipodi.sourceforge.net/DTD/sodipodi-0.dtd"
   xmlns:inkscape="http://www.inkscape.org/namespaces/inkscape"
   id="svg4124"
   height="71"
   width="338"
   version="1.1"
   inkscape:version="0.48.3.1 r9886"
   sodipodi:docname="bestcoupon_header_logo.svg">
  <defs
     id="defs15" />
  <sodipodi:namedview
     pagecolor="#ffffff"
     bordercolor="#666666"
     borderopacity="1"
     objecttolerance="10"
     gridtolerance="10"
     guidetolerance="10"
     inkscape:pageopacity="0"
     inkscape:pageshadow="2"
     inkscape:window-width="640"
     inkscape:window-height="480"
     id="namedview13"
     showgrid="false"
     inkscape:zoom="0.89002497"
     inkscape:cx="162.355"
     inkscape:cy="30.287001"
     inkscape:window-x="0"
     inkscape:window-y="0"
     inkscape:window-maximized="0"
     inkscape:current-layer="layer1" />
  <metadata
     id="metadata4129">
    <rdf:RDF>
      <cc:Work
         rdf:about="">
        <dc:format>image/svg+xml</dc:format>
        <dc:type
           rdf:resource="http://purl.org/dc/dcmitype/StillImage" />
        <dc:title />
      </cc:Work>
    </rdf:RDF>
  </metadata>
  <g
     id="layer1"
     transform="translate(-35.741901,-119.00083)">
    <path
       id="path3177-1-2"
       d="m 63.767,184.1 c -9.49,-3.38 -16.277,-10.9 -19.349,-21.44 -3.9692,-13.614 3.5502,-29.091 17.151,-35.3 7.1444,-3.262 19.162,-3.2334 25.5,0.0605 6.1293,3.1855 11.647,8.6321 14.817,14.627 2.2203,4.1983 2.645,6.2827 2.6486,13 0.007,13.006 -5.3223,21.774 -16.688,27.453 -5.1205,2.5588 -7.233,3.0398 -13.188,3.0029 -3.8996,-0.0241 -8.8012,-0.65416 -10.892,-1.4 z m 11.058,-3.8061 c -0.63724,-1.9407 -5.7562,-2.2221 -5.7562,-0.31642 0,1.0832 0.95115,1.5664 3.0833,1.5664 2.0189,0 2.9416,-0.43152 2.6729,-1.25 z m 5.662,0.64301 c 0.86999,-0.33384 1.5818,-1.282 1.5818,-2.107 0,-0.95696 -0.57265,-1.2802 -1.5818,-0.89301 -0.86998,0.33385 -2.22,0.60699 -3,0.60699 -0.78001,0 -1.4182,0.675 -1.4182,1.5 0,1.57 1.7383,1.9214 4.4182,0.89301 z m -15.418,-2.72 c 0,-1.7878 -4.7038,-3.9488 -5.5644,-2.5563 -0.71414,1.1555 -0.70033,1.1737 2.0644,2.7179 2.6616,1.4866 3.5,1.4479 3.5,-0.16159 z m 25.544,-2.7324 c 1.1218,-1.8152 -0.43538,-2.3244 -2.9661,-0.97001 -1.3689,0.73262 -2.1929,1.8827 -1.8985,2.6499 0.55557,1.4478 3.5764,0.40465 4.8646,-1.6798 z m -33.544,-3.28 c 0,-0.73976 -0.85533,-2.1191 -1.9007,-3.0651 -2.565,-2.3213 -3.9179,-0.15185 -1.5422,2.4732 2.0439,2.2585 3.443,2.499 3.443,0.59198 z m 39.434,-2.8643 c 2.0432,-2.9171 0.23091,-5.0525 -1.8985,-2.237 -1.6842,2.2269 -1.9798,4.4462 -0.59225,4.4462 0.51881,0 1.6396,-0.99417 2.4907,-2.2093 z m -26.042,-1.04 c 0.80049,-1.2785 0.77747,-2.2527 -0.0859,-3.6351 -0.98254,-1.5733 -0.79659,-2.2482 1.1139,-4.0431 l 2.2934,-2.1545 5.6319,2.1071 c 5.7302,2.1439 10.721,2.326 11.347,0.41386 0.19059,-0.58202 -2.5923,-2.0957 -6.1842,-3.3637 -3.5919,-1.268 -6.7243,-2.6188 -6.9609,-3.0017 -0.23664,-0.38288 1.5513,-3.1442 3.9731,-6.1362 2.4219,-2.9921 4.4206,-5.7776 4.4415,-6.1901 0.021,-0.4125 -1.0326,-0.75 -2.3414,-0.75 -2.0514,0 -7.1141,4.8425 -10.746,10.278 -0.34379,0.5146 -2.0043,0.63271 -3.69,0.26247 -2.3707,-0.5207 -3.1351,-1.281 -3.3749,-3.3569 -0.26837,-2.3231 -0.76574,-2.6837 -3.701,-2.6837 -2.1424,0 -3.7975,0.6444 -4.4949,1.75 -1.6971,2.6904 0.31443,4.8836 5.7434,6.262 7.2567,1.8426 7.6338,2.8129 2.8073,7.2247 -2.2907,2.0939 -4.1648,4.4947 -4.1648,5.3352 0,3.9454 6.1969,5.1871 8.3918,1.6816 z m -4.8818,-0.73715 c -0.73755,-1.1934 0.19857,-3.0163 1.5489,-3.0163 1.2168,0 1.2247,2.7066 0.0101,3.4573 -0.512,0.31643 -1.2136,0.11798 -1.559,-0.44099 z m -5,-17 c -0.73755,-1.1934 0.19857,-3.0163 1.5489,-3.0163 1.2168,0 1.2247,2.7066 0.0101,3.4573 -0.512,0.31643 -1.2136,0.11798 -1.559,-0.44099 z m -9.2861,10.745 c -0.5429,-2.018 -1.0849,-2.4676 -2.1671,-1.7976 -1.195,0.7398 -1.2298,1.3616 -0.20213,3.6171 1.5446,3.39 3.3896,1.9732 2.3692,-1.8195 z m 48.776,-1.761 c 0,-3.2057 -1.3908,-4.03 -2.393,-1.4182 -1.0284,2.6799 -0.67703,4.4182 0.89301,4.4182 1,0 1.5,-1 1.5,-3 z m -49.607,-5.5818 c 1.0284,-2.6799 0.67703,-4.4182 -0.89301,-4.4182 -1,0 -1.5,1 -1.5,3 0,3.2057 1.3908,4.03 2.393,1.4182 z m 49.423,-4.0911 c -0.40771,-3.444 -2.8164,-4.3652 -2.8164,-1.0771 0,2.5344 0.72389,3.75 2.2331,3.75 0.49486,0 0.75736,-1.2028 0.58333,-2.6729 z m -46.023,-6.3678 c 1.2378,-1.9821 0.89236,-3.9593 -0.69183,-3.9593 -0.68331,0 -3.1015,4.325 -3.1015,5.547 0,1.3043 2.6905,0.17816 3.7933,-1.5877 z m 42.606,-0.79635 c 0.28452,-0.46037 -0.191,-1.8483 -1.0567,-3.0843 -2.0538,-2.9322 -4.0911,-1.2501 -2.1841,1.8034 1.406,2.2513 2.3986,2.6436 3.2408,1.2809 z m -35.954,-6.69 c 2.8156,-2.1294 0.68012,-3.9417 -2.237,-1.8985 -1.2151,0.85109 -2.2093,1.9719 -2.2093,2.4907 0,1.3876 2.2193,1.092 4.4462,-0.59225 z m 28,-2.9268 c -2.0876,-1.5766 -3.6133,-1.5365 -4.162,0.1095 -0.18739,0.56216 0.68449,1.4962 1.9375,2.0757 3.0734,1.4214 4.78,-0.25513 2.2244,-2.1852 z m -17.652,-2.41 c 0.2922,-0.87661 -0.46254,-1.1707 -2.4263,-0.94548 -1.7007,0.19506 -2.9788,1.0044 -3.1687,2.0064 -0.26089,1.3766 0.17671,1.5471 2.4263,0.94548 1.5095,-0.40371 2.9354,-1.3066 3.1687,-2.0064 z m 10.206,0.38146 c 0,-0.825 -0.6382,-1.5 -1.4182,-1.5 -0.78002,0 -2.13,-0.27315 -3,-0.60699 -1.0186,-0.39089 -1.5818,-0.061 -1.5818,0.92667 0,1.4112 1.5934,2.2714 4.75,2.5643 0.6875,0.0638 1.25,-0.559 1.25,-1.384 z m 204.58,52.25 c 0,-4.1068 -3.73,-11.557 -3.0033,-16.402 l 0.65195,-4.3475 h -3.4224 c -1.8823,0 -4.2868,-0.63204 -5.3432,-1.4045 -1.6724,-1.2229 -2.2467,-1.1793 -4.4411,0.33728 -5.4674,3.7786 -9.2326,3.2694 -11.043,-1.4935 -1.1721,-3.0828 -4.933,-3.2502 -7.5695,-0.33682 -5.1323,5.6712 -13.037,6.5759 -17.327,1.9832 l -2.7225,-2.9144 -3.2869,2.0811 c -3.9961,2.5302 -10.899,2.7458 -14.403,0.44985 -3.9113,-2.5628 -5.237,-7.924 -3.2475,-13.133 4.9196,-12.882 19.02,-12.345 15.536,0.59134 -0.78317,2.9085 -1.5193,3.8725 -2.7623,3.6175 -1.3334,-0.27361 -1.6601,-1.3526 -1.5327,-5.0626 0.133,-3.873 -0.14835,-4.7149 -1.5757,-4.7149 -2.6207,0 -6.0925,4.2636 -6.7447,8.2831 -0.4781,2.9462 -0.12967,4.0196 1.9941,6.1434 1.5804,1.5804 3.6916,2.5735 5.471,2.5735 3.6641,0 8.9645,-3.5368 11.958,-7.9793 3.2484,-4.8204 6.9979,-7.0064 12.03,-7.0142 5.1087,-0.008 9.2046,3.354 9.2046,7.5549 0,2.0078 0.38441,2.5049 1.5818,2.0455 0.86998,-0.33384 1.786,-0.60699 2.0355,-0.60699 0.24957,0 1.3218,-2.025 2.3827,-4.5 1.0609,-2.475 2.409,-4.5 2.9958,-4.5 2.0267,0 2.2534,3.1209 0.50782,6.9918 -1.9172,4.2515 -1.4105,9.0082 0.95962,9.0082 2.6896,0 6.7472,-4.5804 8.3914,-9.4724 0.90494,-2.6926 2.2076,-5.0752 2.8948,-5.2948 1.9849,-0.63414 2.6724,2.7115 1.3236,6.4416 -0.96618,2.6719 -0.97339,3.7408 -0.0329,4.874 1.9777,2.383 4.5614,1.6693 7.9567,-2.1977 3.1094,-3.5414 3.1837,-3.8397 2.5143,-10.091 -0.6328,-5.909 -0.53781,-6.4124 1.1495,-6.0925 1.2581,0.23851 1.9397,1.3923 2.1572,3.6512 0.19912,2.0687 0.75951,3.1173 1.5,2.8068 4.5909,-1.9252 8.8779,-2.7934 11.073,-2.2423 2.925,0.73414 5.6088,5.1742 5.6088,9.2794 0,2.7249 0.0677,2.6954 5.0382,-2.2003 4.9205,-4.8465 5.1793,-4.9624 11.081,-4.9624 6.7614,0 8.8812,1.5971 8.8812,6.6911 0,5.4767 4.7636,2.0947 5.199,-3.6911 0.40583,-5.3927 3.1699,-5.5841 3.6114,-0.25 0.1707,2.0625 0.49732,3.75 0.72583,3.75 0.2285,0 1.8888,-0.89832 3.6896,-1.9963 1.8008,-1.09798 3.5795,-1.998 3.9527,-2 1.7983,-0.01 3.8214,3.502 3.8214,6.6334 0,8.4982 3.7422,8.8912 8.4338,0.88566 2.9021,-4.9521 4.5662,-5.7739 4.5662,-2.255 0,5.4579 -8.2595,13.262 -12.784,12.078 -2.2658,-0.59252 -4.2161,-4.9577 -4.2161,-9.4365 0,-4.6052 -1.5844,-4.2152 -6.5664,1.6162 -4.7892,5.6058 -7.1303,6.5197 -6.6954,2.6138 0.37188,-3.3405 -3.3856,-2.691 -7.8699,1.3602 -3.0377,2.7444 -4.7193,3.5 -7.7894,3.5 -5.328,0 -6.8984,-0.75024 -8.6466,-4.131 l -1.4938,-2.8886 -3.2193,1.7308 c -2.1459,1.1537 -5.4277,1.7222 -9.8429,1.7051 l -6.6236,-0.0256 -0.61925,6.5546 c -0.34059,3.605 -0.62245,8.6021 -0.62636,11.105 -0.0103,6.5647 -2.6957,8.8897 -5.4286,4.7 z m 2.3219,-14.5 c -0.0657,-6.4234 -0.37285,-8.897 -0.90032,-7.25 -1.4942,4.6655 -1.0538,17 0.60699,17 0.21615,0 0.34815,-4.3875 0.29333,-9.75 z m -41.518,-9.3358 2.6516,-2.0858 -2.5167,-2.991 c -1.3842,-1.645 -2.5167,-3.8564 -2.5167,-4.9142 0,-2.2456 -0.12943,-2.2771 -3.3427,-0.81301 -2.345,1.0684 -4.6573,4.6503 -4.6573,7.2143 0,2.387 3.1415,5.6754 5.4218,5.6754 1.2696,0 3.5017,-0.93859 4.96,-2.0858 z m 80.044,-0.0348 2.6959,-2.1206 -2.162,-2.3013 c -1.1891,-1.2657 -2.229,-3.4611 -2.311,-4.8787 -0.18502,-3.1988 -1.7356,-3.2687 -5.26,-0.23709 -1.8759,1.6136 -2.7224,3.3072 -2.7224,5.4467 0,6.1157 4.6875,8.0806 9.7595,4.091 z m -23.36,-2.9146 c 2.3605,-1.2633 2.4961,-4.7177 0.30773,-7.842 -1.3122,-1.8734 -2.2176,-2.204 -4.6844,-1.7106 -1.6818,0.33636 -3.8749,1.351 -4.8735,2.2547 -2.0696,1.8729 -2.4413,6.914 -0.56562,7.6709 2.2329,0.90099 7.833,0.68824 9.8157,-0.37291 z m -53.937,-7.2356 c -1.6649,-1.6649 -2.6078,-0.0108 -1.0582,1.8563 0.93718,1.1292 1.4792,1.2641 1.755,0.43667 0.21948,-0.65843 -0.0941,-1.6903 -0.69678,-2.293 z m 81.161,1.2708 c -0.28766,-1.1 -0.92053,-2 -1.4064,-2 -1.0332,0 -1.1868,2.3632 -0.2167,3.3333 1.311,1.311 2.1371,0.63237 1.6231,-1.3333 z"
       inkscape:connector-curvature="0"
       style="fill:#000000" />
    <g
       id="text3179-3-7"
       style="font-size:36px;font-style:normal;font-variant:normal;font-weight:bold;font-stretch:normal;line-height:125%;letter-spacing:0px;word-spacing:0px;fill:#000000;font-family:Purisa"
       font-weight="bold"
       transform="translate(88.460198,-192.78504)"
       font-stretch="normal"
       line-height="125%"
       font-size="36px"
       font-variant="normal"
       font-style="normal">
      <path
         id="path4034-2"
         d="m 40.571,351.01 c 0.55198,-0.55199 0.94798,-0.99599 1.188,-1.332 0.26398,-0.33599 0.49198,-0.82799 0.684,-1.476 0.19198,-0.64799 0.28798,-1.44 0.288,-2.376 -1.9e-5,-2.712 -1.044,-4.068 -3.132,-4.068 -0.62402,2e-5 -1.26,0.084 -1.908,0.252 -0.64801,0.16802 -1.428,0.43202 -2.34,0.792 -0.88801,0.33601 -1.416,0.52801 -1.584,0.576 -0.21601,0.072 -0.32401,0.45601 -0.324,1.152 -10e-6,0.50401 0.03599,1.512 0.108,3.024 0.04799,0.96001 0.08399,1.68 0.108,2.16 0.04799,0.48001 0.13199,0.94801 0.252,1.404 0.11999,0.45601 0.21599,0.76801 0.288,0.936 0.09599,0.14401 0.28799,0.28801 0.576,0.432 0.28799,0.12001 0.55199,0.19201 0.792,0.216 0.26399,10e-6 0.67199,0.012 1.224,0.036 0.11999,10e-6 0.27599,0.012 0.468,0.036 0.21599,10e-6 0.37199,10e-6 0.468,0 0.55198,10e-6 0.95998,-0.084 1.224,-0.252 0.28798,-0.16799 0.82798,-0.67199 1.62,-1.512 m 0.36,-19.8 c -1.8e-5,-0.11997 -0.06002,-0.23997 -0.18,-0.36 -0.09602,-0.11997 -0.37202,-0.23997 -0.828,-0.36 -0.43202,-0.14397 -0.99602,-0.21597 -1.692,-0.216 -1.008,3e-5 -2.124,0.084 -3.348,0.252 -1.224,0.16803 -1.992,0.32403 -2.304,0.468 -0.19201,0.072 -0.28801,0.38403 -0.288,0.936 v 0.72 c -9e-6,1.2 0.11999,2.652 0.36,4.356 0.23999,1.68 0.43199,2.712 0.576,3.096 0.07199,0.19202 0.16799,0.28802 0.288,0.288 0.45599,-0.072 1.476,-0.93598 3.06,-2.592 1.608,-1.656 2.748,-3.144 3.42,-4.464 0.62398,-1.272 0.93598,-1.98 0.936,-2.124 m -13.068,1.332 c -1.512,3e-5 -2.268,-0.40797 -2.268,-1.224 -2e-6,-1.008 2.016,-1.992 6.048,-2.952 1.656,-0.38397 4.08,-0.57597 7.272,-0.576 0.59998,3e-5 1.056,0.012 1.368,0.036 0.33598,3e-5 0.65998,0.072 0.972,0.216 0.33598,0.12003 0.55198,0.21603 0.648,0.288 0.11998,0.048 0.41998,0.21603 0.9,0.504 0.31198,0.19203 0.55198,0.50403 0.72,0.936 0.19198,0.40803 0.28798,0.74403 0.288,1.008 -0.02402,0.81603 -0.20402,1.668 -0.54,2.556 -0.33602,0.88802 -0.68402,1.62 -1.044,2.196 -0.33602,0.55202 -0.74402,1.164 -1.224,1.836 -0.48002,0.67202 -0.75602,1.056 -0.828,1.152 0.62398,0.024 1.44,0.34802 2.448,0.972 1.032,0.60002 1.704,1.152 2.016,1.656 0.62398,0.98402 0.93598,2.4 0.936,4.248 -2.2e-5,2.88 -0.87602,5.316 -2.628,7.308 -1.728,1.992 -3.432,2.988 -5.112,2.988 -0.31201,0 -0.68401,-0.072 -1.116,-0.216 -0.43201,-0.144 -0.75601,-0.216 -0.972,-0.216 -0.26401,0 -0.72001,0.108 -1.368,0.324 -0.62401,0.192 -1.104,0.288 -1.44,0.288 -0.40801,0 -0.75601,-0.108 -1.044,-0.324 -0.28801,-0.216 -0.52801,-0.564 -0.72,-1.044 -0.16801,-0.48 -0.30001,-1.008 -0.396,-1.584 -0.09601,-0.57599 -0.18001,-1.308 -0.252,-2.196 -0.07201,-0.88799 -0.14401,-1.764 -0.216,-2.628 -0.04801,-0.88799 -0.13201,-1.956 -0.252,-3.204 -0.09601,-1.248 -0.22801,-2.436 -0.396,-3.564 -0.19201,-1.44 -0.39601,-3.456 -0.612,-6.048 l -0.216,-2.736 h -0.972"
         inkscape:connector-curvature="0" />
      <path
         id="path4036-7"
         d="m 70.345,347.45 c 0.43198,1e-5 0.64798,0.25201 0.648,0.756 -2.2e-5,0.55201 -0.34802,1.344 -1.044,2.376 -0.69602,1.008 -1.392,1.824 -2.088,2.448 -2.688,2.304 -5.46,3.456 -8.316,3.456 -2.352,0 -4.476,-0.924 -6.372,-2.772 -1.896,-1.848 -2.844,-4.392 -2.844,-7.632 -10e-7,-0.91199 0.132,-1.788 0.396,-2.628 0.504,-1.488 1.632,-3.036 3.384,-4.644 1.752,-1.632 3.432,-2.448 5.04,-2.448 0.43199,2e-5 1.068,0.036 1.908,0.108 1.296,0.096 2.208,0.22802 2.736,0.396 0.55198,0.14402 1.176,0.44402 1.872,0.9 0.76798,0.50402 1.464,1.224 2.088,2.16 0.62398,0.91202 0.93598,1.716 0.936,2.412 -2e-5,0.91201 -0.37202,1.584 -1.116,2.016 -0.74402,0.43201 -2.004,0.82801 -3.78,1.188 -2.328,0.45601 -4.728,0.75601 -7.2,0.9 l -3.132,0.144 v 0.936 c -5e-6,0.88801 0.192,1.668 0.576,2.34 0.40799,0.67201 1.056,1.38 1.944,2.124 1.272,1.056 2.568,1.584 3.888,1.584 1.056,0 2.172,-0.312 3.348,-0.936 1.176,-0.64799 2.172,-1.356 2.988,-2.124 0.83998,-0.76799 1.644,-1.464 2.412,-2.088 0.79198,-0.64799 1.368,-0.97199 1.728,-0.972 m -4.644,-5.688 c -1.7e-5,-0.19198 -0.52802,-0.68398 -1.584,-1.476 -0.76801,-0.57598 -1.32,-0.93598 -1.656,-1.08 -0.31201,-0.14398 -0.76801,-0.21598 -1.368,-0.216 -1.2,2e-5 -2.088,0.096 -2.664,0.288 -0.55201,0.16802 -1.14,0.55202 -1.764,1.152 -1.872,1.824 -2.808,3 -2.808,3.528 l -0.036,-0.036 c 0.096,0.024 0.312,0.036 0.648,0.036 2.328,10e-6 5.556,-0.40799 9.684,-1.224 1.032,-0.19198 1.548,-0.51598 1.548,-0.972"
         inkscape:connector-curvature="0" />
      <path
         id="path4038-9"
         d="m 75.634,353.71 c -3e-6,-0.408 0.108,-0.75599 0.324,-1.044 0.216,-0.31199 0.48,-0.46799 0.792,-0.468 0.6,1e-5 1.128,0.42001 1.584,1.26 0.26399,0.504 0.83999,0.984 1.728,1.44 0.88799,0.432 1.716,0.648 2.484,0.648 0.95999,0 1.836,-0.528 2.628,-1.584 0.81599,-1.08 1.224,-1.908 1.224,-2.484 -1.4e-5,-0.096 -0.03601,-0.22799 -0.108,-0.396 -0.07201,-0.19199 -0.27601,-0.44399 -0.612,-0.756 -0.31201,-0.31199 -0.72001,-0.53999 -1.224,-0.684 -0.81601,-0.23999 -1.704,-0.53999 -2.664,-0.9 -0.96001,-0.38399 -1.668,-0.62399 -2.124,-0.72 -0.72001,-0.14399 -1.668,-0.64799 -2.844,-1.512 -1.176,-0.86399 -1.764,-1.776 -1.764,-2.736 -3e-6,-0.95998 0.684,-2.196 2.052,-3.708 1.368,-1.512 3.06,-2.484 5.076,-2.916 l 3.6,-0.324 c 0.64799,2e-5 1.14,0.084 1.476,0.252 0.33598,0.14402 0.75598,0.50402 1.26,1.08 0.81598,0.93602 1.224,1.62 1.224,2.052 -1.7e-5,0.60002 -0.31202,0.90002 -0.936,0.9 -0.52802,2e-5 -1.068,-0.27598 -1.62,-0.828 -0.52801,-0.57598 -1.188,-0.86398 -1.98,-0.864 -1.08,2e-5 -2.208,0.31202 -3.384,0.936 -1.152,0.60002 -2.064,1.236 -2.736,1.908 -0.67201,0.64802 -1.008,1.116 -1.008,1.404 -6e-6,0.19201 0.13199,0.42001 0.396,0.684 0.28799,0.24001 0.75599,0.52801 1.404,0.864 0.67199,0.33601 1.464,0.63601 2.376,0.9 2.52,0.74401 4.26,1.476 5.22,2.196 0.95998,0.72001 1.44,1.728 1.44,3.024 -1.6e-5,1.128 -0.20402,2.148 -0.612,3.06 -0.33602,0.792 -0.99602,1.608 -1.98,2.448 -0.98401,0.864 -1.992,1.296 -3.024,1.296 -0.74401,0 -1.716,-0.108 -2.916,-0.324 -1.176,-0.192 -2.088,-0.432 -2.736,-0.72 -0.528,-0.264 -0.996,-0.732 -1.404,-1.404 -0.408,-0.696 -0.612,-1.356 -0.612,-1.98"
         inkscape:connector-curvature="0" />
      <path
         id="path4040-5"
         d="m 101.3,336.43 c -0.768,0.048 -1.824,0.19202 -3.168,0.432 -1.32,0.21602 -2.208,0.32402 -2.664,0.324 -1.032,2e-5 -1.548,-0.40798 -1.548,-1.224 -10e-7,-0.64798 0.456,-1.14 1.368,-1.476 0.912,-0.33598 1.992,-0.59998 3.24,-0.792 1.272,-0.19198 2.088,-0.38398 2.448,-0.576 0.192,-0.19197 0.288,-0.70797 0.288,-1.548 0,-0.86397 -0.108,-1.992 -0.324,-3.384 -0.216,-1.392 -0.324,-2.652 -0.324,-3.78 0,-0.76797 0.204,-1.332 0.612,-1.692 0.40799,-0.38396 0.85199,-0.57596 1.332,-0.576 0.52799,4e-5 0.89999,0.21604 1.116,0.648 0.11999,0.36003 0.32399,1.932 0.612,4.716 0.28799,2.76 0.46799,4.356 0.54,4.788 0.19199,-0.024 0.82799,-0.11997 1.908,-0.288 1.104,-0.19197 1.944,-0.28797 2.52,-0.288 0.81599,3e-5 1.392,0.13203 1.728,0.396 0.33599,0.26403 0.50399,0.55203 0.504,0.864 -1e-5,0.45602 -0.31201,0.84002 -0.936,1.152 -0.62401,0.31202 -1.752,0.67202 -3.384,1.08 l -2.052,0.324 0.288,5.472 c 0.19199,3.384 0.52799,6.552 1.008,9.504 0.47999,2.952 5.9366,1.3984 5.9366,1.8544 2.3214,0.87743 1.5528,5.0202 -6.8726,4.8416 -0.64786,-0.0137 -1.128,-0.12 -1.44,-0.36 -0.72001,-0.648 -1.08,-2.004 -1.08,-4.068 -1e-5,-0.83999 -0.048,-1.692 -0.144,-2.556 -0.096,-0.88799 -0.26401,-2.256 -0.504,-4.104 -0.21601,-1.872 -0.42001,-3.804 -0.612,-5.796 -0.24,-2.496 -0.372,-3.792 -0.396,-3.888"
         inkscape:connector-curvature="0" />
    </g>
    <g
       style="font-size:28px;font-style:italic;font-variant:normal;font-weight:bold;font-stretch:normal;line-height:125%;letter-spacing:0px;word-spacing:0px;fill:#e6e6e6;font-family:URW Chancery L"
       id="text3951-1-7">
      <path
         d="m 123.15079,173.93403 1.596,-6.356 0.868,0 c 1.176,-0.056 2.044,-0.084 2.212,-0.084 1.092,0 1.288,0.196 2.044,2.044 l 1.848,-1.848 c -0.084,-0.616 -0.308,-0.924 -0.784,-1.092 l -5.992,0.112 0.168,-0.588 -1.96,0.588 c -2.68799,0.028 -4.396,0.56 -5.992,1.82 -1.4,1.12 -2.016,2.24 -2.016,3.696 0,0.728 0.112,1.288 0.504,2.268 l 2.016,-1.344 c -0.252,-0.896 -0.364,-1.624 -0.364,-2.324 0,-2.184 1.56801,-3.08 5.376,-3.192 l -1.568,6.3 c -0.476,0.476 -0.616,0.644 -1.092,1.204 l 0.784,0 c -0.112,0.42 -0.196,0.784 -0.308,1.12 -1.064,4.31199 -1.372,4.788 -3.668,5.348 l -1.064,0.924 c 0.784,0.028 1.372,0.028 1.568,0.028 l 2.52,0.028 c 0.84,0 1.596,0.028 2.24,0.056 3.388,0.112 3.416,0.112 4.62,0.112 1.456,0 1.848,-0.168 3.108,-1.316 1.288,-1.148 1.764,-1.82 1.764,-2.464 0,-0.14 -0.028,-0.364 -0.112,-0.644 l -2.128,0.784 c 0.084,0.588 0.112,0.812 0.112,1.064 0,1.064 -0.364,1.204 -3.052,1.204 l -7.28,0 c 2.716,-2.492 2.744,-2.548 3.752,-6.384 1.428,-0.084 1.596,-0.084 2.268,-0.14 0.616,-0.028 1.036,-0.056 1.204,-0.056 0.112,-0.028 0.42,-0.028 0.756,-0.056 0.504,-0.364 0.56,-0.42 1.064,-0.812 l -5.012,0"
         style=""
         id="path2993" />
      <path
         d="m 141.07473,178.97403 c -2.156,1.54 -3.64,2.324 -4.536,2.324 -1.008,0 -1.596,-0.784 -1.596,-2.128 0,-1.344 0.336,-3.136 0.868,-4.452 0.56,-1.484 1.288,-2.24 2.1,-2.24 0.672,0 1.036,0.532 1.176,1.764 l 1.624,-0.952 c 0.028,-0.14 0.028,-0.28 0.028,-0.308 0,-1.204 -0.616,-1.96 -1.596,-1.96 -0.504,0 -0.812,0.112 -1.82,0.784 -2.1,1.316 -2.548,1.736 -3.164,2.884 -0.784,1.512 -1.372,3.892 -1.372,5.628 0,1.624 0.756,2.576 2.044,2.576 1.344,0 3.64,-1.12 6.188,-3.024 l 0.056,-0.896"
         style=""
         id="path2995" />
      <path
         d="m 149.91836,171.02203 c -1.12,0 -2.91201,0.812 -4.564,2.044 -1.792,1.344 -3.052,4.256 -3.052,7.028 0,1.708 0.952,2.8 2.436,2.8 0.784,0 1.568,-0.28 2.856,-0.952 1.39999,-0.784 2.324,-1.484 2.828,-2.156 1.11999,-1.512 2.016,-4.256 2.016,-6.188 0,-1.512 -1.03601,-2.576 -2.52,-2.576 m -1.456,1.316 c 1.11999,0 1.82,1.092 1.82,2.772 0,1.176 -0.392,2.632 -1.092,4.004 -0.784,1.596 -1.79201,2.464 -2.856,2.464 -1.148,0 -1.876,-1.036 -1.876,-2.632 0,-3.248 2.044,-6.608 4.004,-6.608"
         style=""
         id="path2997" />
      <path
         d="m 155.66929,181.99803 1.652,-6.58 c 3.5,-2.212 3.584,-2.24 3.976,-2.24 0.196,0 0.308,0.14 0.308,0.364 0,0.42 -0.224,1.484 -1.036,4.676 -0.616,2.492 -0.728,2.968 -0.728,3.5 0,0.392 0.112,0.756 0.42,1.26 1.288,-0.588 3.22001,-1.792 5.18,-3.248 l 0.196,-0.784 c -2.79999,1.596 -2.912,1.652 -3.192,1.652 -0.28,0 -0.448,-0.308 -0.448,-0.756 0,-0.588 0.196,-1.512 0.728,-3.444 1.316,-4.704 1.316,-4.704 1.316,-4.9 0,-0.308 -0.196,-0.476 -0.56,-0.476 -0.42,0 -1.036,0.252 -2.044,0.896 l -3.836,2.38 c 0.252,-0.924 0.672,-2.688 0.672,-2.912 0,-0.196 -0.168,-0.364 -0.364,-0.364 -0.308,0 -2.324,1.036 -4.396,2.268 l -0.168,0.728 c 1.792,-0.812 1.904,-0.84 2.156,-0.84 0.196,0 0.336,0.168 0.336,0.392 0,0.588 -0.532,2.912 -1.232,5.46 l -0.644,2.268 c -0.056,0.196 -0.196,0.728 -0.392,1.512 l 2.1,-0.812"
         style=""
         id="path2999" />
      <path
         d="m 174.03554,171.02203 c -1.12,0 -2.912,0.812 -4.564,2.044 -1.79199,1.344 -3.052,4.256 -3.052,7.028 0,1.708 0.952,2.8 2.436,2.8 0.784,0 1.568,-0.28 2.856,-0.952 1.4,-0.784 2.324,-1.484 2.828,-2.156 1.12,-1.512 2.016,-4.256 2.016,-6.188 0,-1.512 -1.036,-2.576 -2.52,-2.576 m -1.456,1.316 c 1.12,0 1.82,1.092 1.82,2.772 0,1.176 -0.392,2.632 -1.092,4.004 -0.784,1.596 -1.792,2.464 -2.856,2.464 -1.148,0 -1.876,-1.036 -1.876,-2.632 0,-3.248 2.04401,-6.608 4.004,-6.608"
         style=""
         id="path3001" />
      <path
         d="m 179.75848,182.05403 1.792,-6.804 c 1.876,-1.26 3.024,-1.932 3.388,-1.932 0.224,0 0.364,0.252 0.364,0.616 0,0.84 -1.064,5.096 -2.24,8.876 l 2.128,-0.756 1.736,-7 c 1.624,-1.036 3.136,-1.876 3.472,-1.876 0.224,0 0.364,0.196 0.364,0.532 0,0.616 -0.252,1.764 -1.008,4.76 -0.448,1.736 -0.588,2.436 -0.588,3.08 0,0.588 0.168,0.896 0.672,1.26 1.652,-0.812 3.052,-1.708 4.76,-3.052 l 0,-0.644 c -0.28,0.14 -0.588,0.336 -0.952,0.588 -1.008,0.644 -1.484,0.868 -1.82,0.868 -0.308,0 -0.504,-0.28 -0.504,-0.756 0,-0.616 0.364,-2.212 0.924,-4.172 0.84,-2.884 1.064,-3.78 1.064,-4.2 0,-0.28 -0.168,-0.42 -0.448,-0.42 -0.504,0 -2.24,0.896 -5.656,2.912 0.084,-0.308 0.112,-0.532 0.14,-0.644 0.336,-1.4 0.42,-1.792 0.42,-1.96 0,-0.196 -0.14,-0.308 -0.364,-0.308 -0.42,0 -1.876,0.784 -4.676,2.576 l -0.896,0.56 c 0.504,-2.044 0.616,-2.548 0.616,-2.744 0,-0.224 -0.168,-0.392 -0.42,-0.392 -0.336,0 -2.548,1.204 -4.368,2.352 l -0.196,0.784 c 1.54,-0.756 1.764,-0.84 2.072,-0.84 0.252,0 0.42,0.224 0.42,0.532 0,0.448 -1.008,4.592 -2.184,8.96 l 1.988,-0.756"
         style=""
         id="path3003" />
      <path
         d="m 199.30642,168.69803 c 0.812,-0.728 0.868,-0.784 1.82,-1.512 -0.168,-0.336 -0.308,-0.56 -0.364,-0.644 -0.168,-0.336 -0.196,-0.364 -0.42,-0.896 -0.056,-0.112 -0.112,-0.224 -0.168,-0.364 -0.14,0.112 -0.308,0.224 -0.392,0.308 -0.112,0.112 -0.336,0.28 -0.616,0.504 -0.14,0.112 -0.336,0.252 -0.588,0.42 -0.112,0.084 -0.224,0.168 -0.336,0.224 0.196,0.616 0.448,1.064 1.064,1.96 m 1.932,10.584 c -2.66,1.428 -2.716,1.456 -3.08,1.456 -0.308,0 -0.504,-0.308 -0.504,-0.784 0,-0.28 0.084,-0.812 0.252,-1.428 1.428,-5.87999 1.708,-7 1.708,-7.224 0,-0.168 -0.14,-0.28 -0.336,-0.28 -0.476,0 -2.128,0.924 -4.424,2.464 l -0.056,0.784 c 1.652,-0.896 1.792,-0.952 2.044,-0.952 0.224,0 0.336,0.168 0.336,0.504 0,0.364 -0.084,0.756 -0.504,2.352 -1.316,4.89999 -1.316,4.9 -1.316,5.6 0,0.672 0.28,1.12 0.672,1.12 0.476,0 1.232,-0.364 2.716,-1.316 0.532,-0.336 1.064,-0.672 1.596,-1.036 0.252,-0.14 0.504,-0.308 0.784,-0.476 l 0.112,-0.784"
         style=""
         id="path3005" />
      <path
         d="m 200.46098,180.20603 c -0.028,0.252 -0.056,0.476 -0.056,0.644 0,1.204 0.84,2.044 2.072,2.044 0.868,0 2.072,-0.364 2.968,-0.868 1.652,-0.952 2.66,-2.38 2.66,-3.78 0,-1.036 -0.196,-1.26 -1.764,-2.24 -0.952,-0.616 -1.344,-1.148 -1.344,-1.876 0,-0.952 0.812,-1.792 1.764,-1.792 0.644,0 1.12,0.308 1.736,1.092 0.952,-0.924 0.952,-0.924 1.316,-1.456 -0.56,-0.672 -1.092,-0.952 -1.876,-0.952 -2.044,0 -4.676,2.436 -4.676,4.284 0,0.868 0.448,1.54 1.512,2.296 1.4,0.98 1.596,1.232 1.596,1.932 0,1.008 -1.288,2.184 -2.38,2.184 -0.616,0 -1.092,-0.336 -1.372,-0.952 -0.196,-0.42 -0.252,-0.84 -0.28,-1.792 -0.308,0.224 -0.532,0.364 -0.644,0.448 -0.224,0.14 -0.476,0.28 -0.728,0.448 l -0.504,0.336"
         style=""
         id="path3007" />
      <path
         d="m 218.86573,178.69403 c -2.1,1.82 -3.444,2.604 -4.508,2.604 -0.7,0 -1.288,-0.476 -1.484,-1.204 -0.112,-0.448 -0.14,-0.756 -0.14,-1.568 1.26,-0.784 2.1,-1.372 3.752,-2.604 1.512,-1.148 2.1,-2.072 2.1,-3.332 0,-0.98 -0.616,-1.568 -1.596,-1.568 -0.616,0 -1.064,0.14 -1.708,0.504 -1.064,0.616 -2.016,1.372 -2.604,2.044 -1.064,1.288 -2.016,4.368 -2.016,6.636 0,1.652 0.868,2.688 2.296,2.688 1.652,0 3.696,-1.176 5.908,-3.388 l 0,-0.812 m -6.048,-1.176 c 0.476,-2.996 1.764,-5.32 2.968,-5.32 0.476,0 0.784,0.476 0.784,1.148 0,1.4 -0.756,2.24 -3.752,4.172"
         style=""
         id="path3009" />
      <path
         d="m 218.94536,180.20603 c -0.028,0.252 -0.056,0.476 -0.056,0.644 0,1.204 0.84,2.044 2.072,2.044 0.868,0 2.072,-0.364 2.968,-0.868 1.65199,-0.952 2.66,-2.38 2.66,-3.78 0,-1.036 -0.19601,-1.26 -1.764,-2.24 -0.952,-0.616 -1.344,-1.148 -1.344,-1.876 0,-0.952 0.812,-1.792 1.764,-1.792 0.644,0 1.12,0.308 1.736,1.092 0.95199,-0.924 0.952,-0.924 1.316,-1.456 -0.56,-0.672 -1.092,-0.952 -1.876,-0.952 -2.044,0 -4.676,2.436 -4.676,4.284 0,0.868 0.448,1.54 1.512,2.296 1.39999,0.98 1.596,1.232 1.596,1.932 0,1.008 -1.28801,2.184 -2.38,2.184 -0.616,0 -1.092,-0.336 -1.372,-0.952 -0.196,-0.42 -0.252,-0.84 -0.28,-1.792 -0.308,0.224 -0.532,0.364 -0.644,0.448 -0.224,0.14 -0.476,0.28 -0.728,0.448 l -0.504,0.336"
         style=""
         id="path3011" />
      <path
         d="m 236.87411,179.00203 c -2.128,1.26 -3.024,1.736 -3.416,1.736 -0.364,0 -0.812,-0.728 -0.812,-1.316 0,-0.392 0.476,-2.548 1.204,-5.488 0.392,-0.028 0.672,-0.028 0.812,-0.028 l 1.12,-0.028 c 0.112,0 0.392,-0.028 0.84,-0.084 l 1.064,-0.812 -3.584,0 1.12,-4.536 c -0.532,0.28 -0.756,0.364 -1.176,0.56 -0.196,0.112 -0.42,0.196 -0.644,0.308 -0.112,0.056 -0.252,0.112 -0.392,0.168 l -0.784,3.5 c -0.252,0.028 -0.42,0.028 -0.504,0.028 l -0.672,0 c -0.056,0 -0.196,0 -0.42,0.028 -0.308,0.196 -0.336,0.196 -0.812,0.588 -0.084,0.056 -0.224,0.168 -0.42,0.308 l 0.672,0 1.288,0 0.616,0 c -1.484,6.21599 -1.484,6.216 -1.484,7.084 0,0.896 0.588,1.876 1.12,1.876 0.616,0 2.52,-1.176 5.208,-3.192 l 0.056,-0.7"
         style=""
         id="path3013" />
      <path
         d="m 246.31886,178.69403 c -2.1,1.82 -3.44401,2.604 -4.508,2.604 -0.7,0 -1.288,-0.476 -1.484,-1.204 -0.112,-0.448 -0.14,-0.756 -0.14,-1.568 1.25999,-0.784 2.1,-1.372 3.752,-2.604 1.51199,-1.148 2.1,-2.072 2.1,-3.332 0,-0.98 -0.61601,-1.568 -1.596,-1.568 -0.616,0 -1.064,0.14 -1.708,0.504 -1.064,0.616 -2.016,1.372 -2.604,2.044 -1.064,1.288 -2.016,4.368 -2.016,6.636 0,1.652 0.868,2.688 2.296,2.688 1.65199,0 3.696,-1.176 5.908,-3.388 l 0,-0.812 m -6.048,-1.176 c 0.476,-2.996 1.764,-5.32 2.968,-5.32 0.476,0 0.784,0.476 0.784,1.148 0,1.4 -0.75601,2.24 -3.752,4.172"
         style=""
         id="path3015" />
      <path
         d="m 262.09817,178.97403 c -2.156,1.54 -3.64,2.324 -4.536,2.324 -1.008,0 -1.596,-0.784 -1.596,-2.128 0,-1.344 0.336,-3.136 0.868,-4.452 0.56,-1.484 1.288,-2.24 2.1,-2.24 0.672,0 1.036,0.532 1.176,1.764 l 1.624,-0.952 c 0.028,-0.14 0.028,-0.28 0.028,-0.308 0,-1.204 -0.616,-1.96 -1.596,-1.96 -0.504,0 -0.812,0.112 -1.82,0.784 -2.1,1.316 -2.548,1.736 -3.164,2.884 -0.784,1.512 -1.372,3.892 -1.372,5.628 0,1.624 0.756,2.576 2.044,2.576 1.344,0 3.64,-1.12 6.188,-3.024 l 0.056,-0.896"
         style=""
         id="path3017" />
      <path
         d="m 263.18579,174.13003 c 1.176,-0.588 1.708,-0.812 2.044,-0.812 0.224,0 0.392,0.224 0.392,0.532 0,0.364 -0.28,1.568 -0.784,3.472 -0.7,2.604 -0.868,3.388 -0.868,4.2 0,0.784 0.336,1.372 0.784,1.372 0.42,0 0.924,-0.252 2.324,-1.176 l 2.884,-1.876 c -0.224,0.896 -0.392,1.904 -0.392,2.408 0,0.364 0.224,0.644 0.504,0.644 0.56,0 3.22001,-1.568 5.124,-2.996 l 0.196,-0.84 c -2.18399,1.288 -2.912,1.68 -3.22,1.68 -0.196,0 -0.308,-0.224 -0.308,-0.672 0,-1.428 1.036,-5.6 2.24,-9.156 -0.364,0.196 -0.616,0.336 -0.728,0.392 -0.336,0.168 -0.672,0.336 -1.036,0.504 -0.084,0.028 -0.252,0.112 -0.56,0.28 -0.168,0.644 -0.728,2.884 -1.652,6.748 -2.15599,1.484 -3.136,2.044 -3.472,2.044 -0.308,0 -0.532,-0.392 -0.532,-0.924 0,-0.644 0.224,-1.764 0.7,-3.556 0.308,-1.12 0.504,-1.904 0.588,-2.296 0.252,-1.036 0.448,-1.764 0.504,-1.96 0.084,-0.308 0.14,-0.56 0.14,-0.756 0,-0.224 -0.14,-0.364 -0.336,-0.364 -0.28,0 -2.324,1.092 -4.34,2.352 l -0.196,0.756"
         style=""
         id="path3019" />
      <path
         d="m 296.92711,181.99803 1.652,-6.58 c 3.49999,-2.212 3.584,-2.24 3.976,-2.24 0.196,0 0.308,0.14 0.308,0.364 0,0.42 -0.224,1.484 -1.036,4.676 -0.616,2.492 -0.728,2.968 -0.728,3.5 0,0.392 0.112,0.756 0.42,1.26 1.28799,-0.588 3.22,-1.792 5.18,-3.248 l 0.196,-0.784 c -2.8,1.596 -2.912,1.652 -3.192,1.652 -0.28,0 -0.448,-0.308 -0.448,-0.756 0,-0.588 0.196,-1.512 0.728,-3.444 1.31599,-4.704 1.316,-4.704 1.316,-4.9 0,-0.308 -0.196,-0.476 -0.56,-0.476 -0.42,0 -1.03601,0.252 -2.044,0.896 l -3.836,2.38 c 0.252,-0.924 0.672,-2.688 0.672,-2.912 0,-0.196 -0.168,-0.364 -0.364,-0.364 -0.308,0 -2.32401,1.036 -4.396,2.268 l -0.168,0.728 c 1.79199,-0.812 1.904,-0.84 2.156,-0.84 0.196,0 0.336,0.168 0.336,0.392 0,0.588 -0.532,2.912 -1.232,5.46 l -0.644,2.268 c -0.056,0.196 -0.196,0.728 -0.392,1.512 l 2.1,-0.812"
         style=""
         id="path3021" />
      <path
         d="m 315.29336,171.02203 c -1.12,0 -2.91201,0.812 -4.564,2.044 -1.792,1.344 -3.052,4.256 -3.052,7.028 0,1.708 0.952,2.8 2.436,2.8 0.784,0 1.568,-0.28 2.856,-0.952 1.39999,-0.784 2.324,-1.484 2.828,-2.156 1.11999,-1.512 2.016,-4.256 2.016,-6.188 0,-1.512 -1.03601,-2.576 -2.52,-2.576 m -1.456,1.316 c 1.11999,0 1.82,1.092 1.82,2.772 0,1.176 -0.392,2.632 -1.092,4.004 -0.784,1.596 -1.79201,2.464 -2.856,2.464 -1.148,0 -1.876,-1.036 -1.876,-2.632 0,-3.248 2.044,-6.608 4.004,-6.608"
         style=""
         id="path3023" />
      <path
         d="m 323.22829,168.69803 c 0.812,-0.728 0.868,-0.784 1.82,-1.512 -0.168,-0.336 -0.308,-0.56 -0.364,-0.644 -0.168,-0.336 -0.196,-0.364 -0.42,-0.896 -0.056,-0.112 -0.112,-0.224 -0.168,-0.364 -0.14,0.112 -0.308,0.224 -0.392,0.308 -0.112,0.112 -0.336,0.28 -0.616,0.504 -0.14,0.112 -0.336,0.252 -0.588,0.42 -0.112,0.084 -0.224,0.168 -0.336,0.224 0.196,0.616 0.448,1.064 1.064,1.96 m 1.932,10.584 c -2.65999,1.428 -2.716,1.456 -3.08,1.456 -0.308,0 -0.504,-0.308 -0.504,-0.784 0,-0.28 0.084,-0.812 0.252,-1.428 1.428,-5.87999 1.708,-7 1.708,-7.224 0,-0.168 -0.14,-0.28 -0.336,-0.28 -0.476,0 -2.128,0.924 -4.424,2.464 l -0.056,0.784 c 1.652,-0.896 1.792,-0.952 2.044,-0.952 0.224,0 0.336,0.168 0.336,0.504 0,0.364 -0.084,0.756 -0.504,2.352 -1.316,4.89999 -1.316,4.9 -1.316,5.6 0,0.672 0.28,1.12 0.672,1.12 0.476,0 1.232,-0.364 2.716,-1.316 0.532,-0.336 1.064,-0.672 1.596,-1.036 0.252,-0.14 0.504,-0.308 0.784,-0.476 l 0.112,-0.784"
         style=""
         id="path3025" />
    </g>
  </g>
</svg>
